# Blender MTL File: 'None'
# Material Count: 6

newmtl Material.002
Ns 92.156863
Ka 0.000000 0.000000 0.000000
Kd 0.149646 0.177695 1.000000
Ks 0.000000 0.000000 0.000000
Ke 0.000000 0.000000 0.000000
Ni 1.000000
d 1.000000
illum 2

newmtl Material.003
Ns 92.156863
Ka 0.000000 0.000000 0.000000
Kd 0.800000 0.000000 0.000000
Ks 0.003268 0.003268 0.003268
Ke 0.000000 0.000000 0.000000
Ni 1.000000
d 1.000000
illum 2

newmtl Material.004
Ns 92.156863
Ka 0.000000 0.000000 0.000000
Kd 0.000000 0.983498 1.000000
Ks 0.000000 0.000000 0.000000
Ke 0.000000 0.000000 0.000000
Ni 1.000000
d 1.000000
illum 2

newmtl Material.005
Ns 92.156863
Ka 0.000000 0.000000 0.000000
Kd 1.000000 1.000000 1.000000
Ks 0.000000 0.000000 0.000000
Ke 0.000000 0.000000 0.000000
Ni 1.000000
d 1.000000
illum 2

newmtl Material.006
Ns 92.156863
Ka 0.000000 0.000000 0.000000
Kd 1.000000 1.000000 1.000000
Ks 0.000000 0.000000 0.000000
Ke 0.000000 0.000000 0.000000
Ni 1.000000
d 1.000000
illum 2
map_Kd 931377098.jpg

newmtl Material.008
Ns 92.156863
Ka 0.000000 0.000000 0.000000
Kd 0.800000 0.800000 0.800000
Ks 0.450450 0.450450 0.450450
Ke 0.000000 0.000000 0.000000
Ni 1.000000
d 1.000000
illum 2
map_Kd 931377098.jpg
