# Blender MTL File: 'None'
# Material Count: 5

newmtl Default
Ns 0.000000
Ka 0.000000 0.000000 0.000000
Kd 1.000000 1.000000 1.000000
Ks 1.000000 1.000000 1.000000
Ke 0.000000 0.000000 0.000000
Ni 1.000000
d 0.800000
illum 2
map_Kd Maps\1ax.jpg

newmtl default
Ns 0.000000
Ka 0.000000 0.000000 0.000000
Kd 1.000000 1.000000 1.000000
Ks 1.000000 1.000000 1.000000
Ke 0.000000 0.000000 0.000000
Ni 1.000000
d 1.000000
illum 2
map_Kd Maps\dm1.jpg

newmtl default_city_buildings
Ns 0.000000
Ka 0.000000 0.000000 0.000000
Kd 1.000000 1.000000 1.000000
Ks 1.000000 1.000000 1.000000
Ke 0.000000 0.000000 0.000000
Ni 1.000000
d 1.000000
illum 2
map_Kd Maps\pb2.jpg

newmtl default_city_buildings.windows
Ns 0.000000
Ka 0.000000 0.000000 0.000000
Kd 1.000000 1.000000 1.000000
Ks 0.600000 0.600000 0.600000
Ke 0.000000 0.000000 0.000000
Ni 1.000000
d 1.000000
illum 2
map_Kd Maps\f1q.jpg

newmtl default_highway
Ns 0.000000
Ka 0.000000 0.000000 0.000000
Kd 1.000000 1.000000 1.000000
Ks 1.000000 1.000000 1.000000
Ke 0.000000 0.000000 0.000000
Ni 1.000000
d 1.000000
illum 2
map_Kd Maps\pv2c.jpg
