# Blender MTL File: 'None'
# Material Count: 14

newmtl default.001
Ns 0.000000
Ka 0.000000 0.000000 0.000000
Kd 1.000000 1.000000 1.000000
Ks 1.000000 1.000000 1.000000
Ke 0.000000 0.000000 0.000000
Ni 1.000000
d 1.000000
illum 2
map_Kd Maps\wnd3b.jpg

newmtl default_engine_cover
Ns 0.000000
Ka 0.000000 0.000000 0.000000
Kd 1.000000 1.000000 1.000000
Ks 1.000000 1.000000 1.000000
Ke 0.000000 0.000000 0.000000
Ni 1.000000
d 1.000000
illum 2

newmtl default_gate
Ns 0.000000
Ka 0.000000 0.000000 0.000000
Kd 0.000000 0.000000 0.000000
Ks 1.000000 1.000000 1.000000
Ke 0.000000 0.000000 0.000000
Ni 1.000000
d 0.800000
illum 2

newmtl default_gate_gate
Ns 0.000000
Ka 0.000000 0.000000 0.000000
Kd 1.000000 1.000000 1.000000
Ks 1.000000 1.000000 1.000000
Ke 0.000000 0.000000 0.000000
Ni 1.000000
d 1.000000
illum 2
map_Kd Maps\wa3.jpg

newmtl default_green
Ns 0.000000
Ka 0.500654 0.500654 0.500654
Kd 0.501961 1.000000 0.000000
Ks 1.000000 1.000000 1.000000
Ke 0.000000 0.000000 0.000000
Ni 1.000000
d 1.000000
illum 2

newmtl default_landing_gear
Ns 0.000000
Ka 0.000000 0.000000 0.000000
Kd 1.000000 1.000000 1.000000
Ks 1.000000 1.000000 1.000000
Ke 0.000000 0.000000 0.000000
Ni 1.000000
d 1.000000
illum 2
map_Kd Maps\cp2.jpg

newmtl default_light
Ns 0.000000
Ka 1.000000 1.000000 1.000000
Kd 1.000000 1.000000 1.000000
Ks 1.000000 1.000000 1.000000
Ke 0.000000 0.000000 0.000000
Ni 1.000000
d 1.000000
illum 2

newmtl default_propulsion
Ns 0.000000
Ka 0.666667 0.666667 0.666667
Kd 0.000000 1.000000 1.000000
Ks 1.000000 1.000000 1.000000
Ke 0.000000 0.000000 0.000000
Ni 1.000000
d 1.000000
illum 2

newmtl default_ramp
Ns 0.000000
Ka 0.000000 0.000000 0.000000
Kd 1.000000 1.000000 1.000000
Ks 1.000000 1.000000 1.000000
Ke 0.000000 0.000000 0.000000
Ni 1.000000
d 1.000000
illum 2
map_Kd Maps\ddt1.jpg

newmtl default_red
Ns 0.000000
Ka 0.333333 0.333333 0.333333
Kd 1.000000 0.000000 0.000000
Ks 1.000000 1.000000 1.000000
Ke 0.000000 0.000000 0.000000
Ni 1.000000
d 1.000000
illum 2

newmtl default_seat_cushions
Ns 0.000000
Ka 0.000000 0.000000 0.000000
Kd 1.000000 1.000000 1.000000
Ks 1.000000 1.000000 1.000000
Ke 0.000000 0.000000 0.000000
Ni 1.000000
d 1.000000
illum 2
map_Kd Maps\dc1.jpg

newmtl default_ship2_frame
Ns 0.000000
Ka 0.000000 0.000000 0.000000
Kd 1.000000 1.000000 1.000000
Ks 1.000000 1.000000 1.000000
Ke 0.000000 0.000000 0.000000
Ni 1.000000
d 1.000000
illum 2
map_Kd Maps\wa3.jpg

newmtl default_skin_ship2
Ns 0.000000
Ka 0.000000 0.000000 0.000000
Kd 1.000000 1.000000 1.000000
Ks 1.000000 1.000000 1.000000
Ke 0.000000 0.000000 0.000000
Ni 1.000000
d 1.000000
illum 2
map_Kd Maps\cx1.jpg

newmtl default_windows_ship2
Ns 0.000000
Ka 0.000000 0.000000 0.000000
Kd 0.000000 0.000000 0.000000
Ks 1.000000 1.000000 1.000000
Ke 0.000000 0.000000 0.000000
Ni 1.000000
d 0.800000
illum 2
